{
  "dates": {
    "maximum": "2021-05-23",
    "minimum": "2021-04-05"
  },
  "page": 1,
  "results": [
    {
      "adult": false,
      "backdrop_path": "/path.jpg",
      "genre_ids": [
        1,
        2,
        3,
        4
      ],
      "id": 1,
      "name": "Name",
      "original_name": "Original Name",
      "overview": "Overview",
      "poster_path": "/path.jpg",
      "vote_average": 1.0
    }
  ],
  "total_pages": 47,
  "total_results": 940
}